…
7.CROPDMG: a variable indicating the estimated monetary value of damage
to agricultural property (crops) caused by the particular observation,
used to determine event types with the most negative consequences on the
economy, rounded to three significant digits, in United States dollars.

8.CROPDMGEXP: a variable indicating the multiplier for `CROPDMG`; can be
“K” for 1,000, “M” for 1,000,000 or “B” for 1,000,000,000 as per NWS
Directive 10-1605.

    stormData <- data[, c("BGN_DATE", "EVTYPE", "FATALITIES", "INJURIES", "PROPDMG", "PROPDMGEXP", "CROPDMG", "CROPDMGEXP")]
    stormData

    ## # A tibble: 902,297 x 8
    ##    BGN_DATE     EVTYPE FATALITIES INJURIES PROPDMG PROPDMGEXP CROPDMG CROPDMGEXP
    ##    <chr>        <chr>       <dbl>    <dbl>   <dbl> <chr>        <dbl> <chr>     
    ##  1 4/18/1950 0~ TORNA~          0       15    25   K                0 ""        
    ##  2 4/18/1950 0~ TORNA~          0        0     2.5 K                0 ""        
    ##  3 2/20/1951 0~ TORNA~          0        2    25   K                0 ""        
    ##  4 6/8/1951 0:~ TORNA~          0        2     2.5 K                0 ""        
    ##  5 11/15/1951 ~ TORNA~          0        2     2.5 K                0 ""        
    ##  6 11/15/1951 ~ TORNA~          0        6     2.5 K                0 ""        
    ##  7 11/16/1951 ~ TORNA~          0        1     2.5 K                0 ""        
    ##  8 1/22/1952 0~ TORNA~          0        0     2.5 K                0 ""        
    ##  9 2/13/1952 0~ TORNA~          1       14    25   K                0 ""        
    ## 10 2/13/1952 0~ TORNA~          0        0    25   K                0 ""        
    ## # ... with 902,287 more rows

\#ii) Subsetting the dates:

\#Next we subset the data to only include only events recorded after
1996 (as motivated above).

    stormData$BGN_DATE <- as.Date(as.character(stormData$BGN_DATE), "%m/%d/%Y %H:%M:%S")
    stormData <- subset(stormData, format(stormData$BGN_DATE, "%Y") > 1996 )
    stormData

    ## # A tibble: 621,260 x 8
    ##    BGN_DATE   EVTYPE    FATALITIES INJURIES PROPDMG PROPDMGEXP CROPDMG CROPDMGEXP
    ##    <date>     <chr>          <dbl>    <dbl>   <dbl> <chr>        <dbl> <chr>     
    ##  1 1997-03-03 TSTM WIND          0        0       6 K                0 K         
    ##  2 1997-03-03 TSTM WIND          0        0       5 K                0 K         
    ##  3 1997-03-03 TSTM WIND          0        0       0 K                0 K         
    ##  4 1997-03-05 TSTM WIND          0        0      10 K                0 K         
    ##  5 1997-03-05 TSTM WIND          0        0       5 K                0 K         
    ##  6 1997-03-05 TSTM WIND          0        0      15 K                2 K         
    ##  7 1997-03-05 TSTM WIND          0        0       3 K                0 K         
    ##  8 1997-03-05 TSTM WIND          0        0      10 K                0 K         
    ##  9 1997-03-05 TSTM WIND          0        0       6 K                0 K         
    ## 10 1997-03-05 TSTM WIND          0        0       8 K                0 K         
    ## # ... with 621,250 more rows
…
    stormData$CROPDMGEXP <- as.character(stormData$CROPDMGEXP)
    stormData$CROPDMGEXP[is.na(stormData$CROPDMGEXP)] <- 0 # NA's considered as dollars
    stormData$CROPDMGEXP[!grepl("K|M|B", stormData$CROPDMGEXP, ignore.case = TRUE)] <- 0 # everything exept K,M,B is dollar
    stormData$CROPDMGEXP[grep("K", stormData$CROPDMGEXP, ignore.case = TRUE)] <- "3"
    stormData$CROPDMGEXP[grep("M", stormData$CROPDMGEXP, ignore.case = TRUE)] <- "6"
    stormData$CROPDMGEXP[grep("B", stormData$CROPDMGEXP, ignore.case = TRUE)] <- "9"
    stormData$CROPDMGEXP <- as.numeric(as.character(stormData$CROPDMGEXP))
    stormData$crop.damage <- stormData$CROPDMG * 10^stormData$CROPDMGEXP
    stormData

    ## # A tibble: 621,260 x 10
    ##    BGN_DATE   EVTYPE    FATALITIES INJURIES PROPDMG PROPDMGEXP CROPDMG CROPDMGEXP
    ##    <date>     <chr>          <dbl>    <dbl>   <dbl>      <dbl>   <dbl>      <dbl>
    ##  1 1997-03-03 TSTM WIND          0        0       6          3       0          3
    ##  2 1997-03-03 TSTM WIND          0        0       5          3       0          3
    ##  3 1997-03-03 TSTM WIND          0        0       0          3       0          3
    ##  4 1997-03-05 TSTM WIND          0        0      10          3       0          3
    ##  5 1997-03-05 TSTM WIND          0        0       5          3       0          3
    ##  6 1997-03-05 TSTM WIND          0        0      15          3       2          3
    ##  7 1997-03-05 TSTM WIND          0        0       3          3       0          3
    ##  8 1997-03-05 TSTM WIND          0        0      10          3       0          3
    ##  9 1997-03-05 TSTM WIND          0        0       6          3       0          3
    ## 10 1997-03-05 TSTM WIND          0        0       8          3       0          3
    ## # ... with 621,250 more rows, and 2 more variables: property.damage <dbl>,
    ## #   crop.damage <dbl>
…
